Introduction to stantargets • stantargets
…
Finally, we read the summaries of posterior predictive samples.

tar_read(postpred)
#> # A tibble: 100 × 15
#>    varia…¹    mean  median    sd   mad    q5   q95  rhat ess_b…² ess_t…³ .join…⁴
#>    <chr>     <dbl>   <dbl> <dbl> <dbl> <dbl> <dbl> <dbl>   <dbl>   <dbl>   <dbl>
#>  1 y_rep[…  0.150   0.154  1.08  1.06  -1.66  1.95 1.00    2888.   3446.      NA
#>  2 y_rep[…  0.0632  0.0769 1.06  1.05  -1.61  1.82 1.00    3470.   3665.      NA
#>  3 y_rep[…  0.116   0.118  1.02  1.02  -1.57  1.79 1.00    3790.   3697.      NA
#>  4 y_rep[…  0.0266  0.0168 1.03  1.03  -1.58  1.78 1.00    3945.   3815.      NA
#>  5 y_rep[… -0.0505 -0.0586 0.978 1.01  -1.69  1.48 1.00    4336.   3647.      NA
#>  6 y_rep[…  0.0122  0.0182 1.01  1.04  -1.56  1.66 1.00    4453.   4108.      NA
#>  7 y_rep[… -0.0392 -0.0154 1.01  1.01  -1.74  1.57 0.999   3315.   3631.      NA
#>  8 y_rep[… -0.106  -0.127  0.999 0.967 -1.75  1.59 1.00    2617.   3081.      NA
#>  9 y_rep[… -0.122  -0.126  1.11  1.05  -1.97  1.68 1.00    3293.   3890.      NA
#> 10 y_rep[… -0.159  -0.156  1.12  1.15  -2.00  1.69 1.00    3270.   3851.      NA
#> # … with 90 more rows, 4 more variables: .rep <chr>, .dataset_id <chr>,
#> #   .file <chr>, .name <chr>, and abbreviated variable names ¹​variable,
#> #   ²​ess_bulk, ³​ess_tail, ⁴​.join_data
#> # ℹ Use `print(n = ...)` to see more rows, and `colnames()` to see all variable names
…
