Bayesian simulation pipelines with stantargets • stantargets
…
str(data)
#> List of 4
#>  $ n         : int 10
#>  $ x         : num [1:10] -1 -0.778 -0.556 -0.333 -0.111 ...
#>  $ y         : num [1:10] -3.007 0.793 -1.739 -2.91 -1.616 ...
#>  $ .join_data:List of 1
#>   ..$ beta: num [1:2] -2.144 -0.301

we make up a hypothetical set of posterior draws,

draws <- tibble(`beta[1]` = rnorm(100), `beta[2]` = rnorm(100))

draws
#> # A tibble: 100 × 2
#>    `beta[1]` `beta[2]`
#>        <dbl>     <dbl>
#>  1     1.57    -0.658 
#>  2    -0.610    0.0874
#>  3     1.05     0.0142
#>  4     1.20    -0.257 
#>  5    -2.25    -0.583 
#>  6     0.241   -0.425 
#>  7    -1.23     1.31  
#>  8    -1.83     0.655 
#>  9    -0.703   -0.461 
#> 10     0.156   -0.331 
#> # ℹ 90 more rows
…
